{
  "extends": ["tslint-react", "tslint-config-prettier"],
  "linterOptions": {
    "exclude": [
      "config/**/*.js",
      "node_modules/**/*.ts"
    ]
  },
  "rules": {
    "no-var-requires" : false
  }
}
